%YAML 1.1
%TAG !u! tag:unity3d.com,2011:
--- !u!114 &11400000
MonoBehaviour:
  m_ObjectHideFlags: 0
  m_CorrespondingSourceObject: {fileID: 0}
  m_PrefabInstance: {fileID: 0}
  m_PrefabAsset: {fileID: 0}
  m_GameObject: {fileID: 0}
  m_Enabled: 1
  m_EditorHideFlags: 0
  m_Script: {fileID: 11500000, guid: 80e14a72067f1ad408ec8d661bc560ce, type: 3}
  m_Name: Career Import Setting
  m_EditorClassIdentifier: 
  templatePath: QuickSheet/ExcelPlugin/Templates
  scriptFilePath: Data/Runtime
  editorScriptFilePath: Data/Editor
  sheetName: CareerSummary.xlsx
  workSheetName: Sheet1
  columnHeaderList:
  - type: 1
    name: JobName
    isEnable: 0
    isArray: 0
  - type: 1
    name: Size
    isEnable: 0
    isArray: 0
  - type: 1
    name: MainLocations
    isEnable: 0
    isArray: 0
  - type: 1
    name: Industries
    isEnable: 0
    isArray: 0
  - type: 3
    name: WeeklyEarnings
    isEnable: 0
    isArray: 0
  - type: 1
    name: FTSize
    isEnable: 0
    isArray: 0
  - type: 3
    name: FTPercentage
    isEnable: 0
    isArray: 0
  - type: 3
    name: Hours
    isEnable: 0
    isArray: 0
  - type: 3
    name: Age
    isEnable: 0
    isArray: 0
  - type: 3
    name: FemalePercentages
    isEnable: 0
    isArray: 0
  - type: 1
    name: FutureGrowth
    isEnable: 0
    isArray: 0
  - type: 1
    name: SkillLevel
    isEnable: 0
    isArray: 0
  excelFilePath: Assets/Data/Excel/CareerSummary.xlsx
  SheetNames:
  - Sheet1
  currentSelectedSheet: 0
